…
## Usage

``` r
library(bonjour)
library(tidyverse)

# current version
packageVersion("bonjour")
## [1] '0.3.0'
```

``` r
bnjr_discover()
## # A tibble: 58 x 7
##    entry_type from            length name                        rclass   ttl type 
##    <chr>      <chr>            <dbl> <chr>                        <dbl> <dbl> <chr>
##  1 answer     10.1.10.20:5353     14 _adisk._tcp.local.               1    10 PTR  
##  2 answer     10.1.10.20:5353      7 _ssh._tcp.local.                 1    10 PTR  
##  3 answer     10.1.10.20:5353     12 _sftp-ssh._tcp.local.            1    10 PTR  
##  4 answer     10.1.10.20:5353      8 _eppc._tcp.local.                1    10 PTR  
##  5 answer     10.1.10.20:5353      7 _rfb._tcp.local.                 1    10 PTR  
##  6 answer     10.1.10.20:5353      7 _smb._tcp.local.                 1    10 PTR  
##  7 answer     10.1.10.20:5353      7 _nfs._tcp.local.                 1    10 PTR  
##  8 answer     10.1.10.20:5353     17 _net-assistant._udp.local.       1    10 PTR  
##  9 answer     10.1.10.20:5353     18 _companion-link._tcp.local.      1    10 PTR  
## 10 answer     10.1.10.20:5353     14 _1password4._tcp.local.          1    10 PTR  
## # … with 48 more rows
```
…
